{
  "knownChars": [],
  "lessons": [],
  "templates": {
    "lessonTemplate": {
      "title": "",
      "text": "",
      "studies": {}
    }
  },
  "examples": {
    "knownChars": [ "我", "是" ],
    "lessons": [
      {
        "title": "I am",
        "text": "我是",
        "studies": {
          "20200920": {
            "studyChars": [ "我", "是" ]
          }
        }
      }
    }
  }
}
